<?xml version="1.0" encoding="UTF-8" standalone="no"?>
<!DOCTYPE svg PUBLIC "-//W3C//DTD SVG 1.1//EN"
 "http://www.w3.org/Graphics/SVG/1.1/DTD/svg11.dtd">
<!-- Generated by graphviz version 2.48.0 (20210717.1556)
 -->
<!-- Title: unnamed Pages: 1 -->
<svg width="100%" height="100%" xmlns="http://www.w3.org/2000/svg" xmlns:xlink="http://www.w3.org/1999/xlink">
<script type="text/ecmascript"><![CDATA[
/**
 *  SVGPan library 1.2.2
 * ======================
 *
 * Given an unique existing element with id "viewport" (or when missing, the
 * first g-element), including the library into any SVG adds the following
 * capabilities:
 *
 *  - Mouse panning
 *  - Mouse zooming (using the wheel)
 *  - Object dragging
 *
 * You can configure the behaviour of the pan/zoom/drag with the variables
 * listed in the CONFIGURATION section of this file.
 *
 * Known issues:
 *
 *  - Zooming (while panning) on Safari has still some issues
 *
 * Releases:
 *
 * 1.2.2, Tue Aug 30 17:21:56 CEST 2011, Andrea Leofreddi
 *	- Fixed viewBox on root tag (#7)
 *	- Improved zoom speed (#2)
 *
 * 1.2.1, Mon Jul  4 00:33:18 CEST 2011, Andrea Leofreddi
 *	- Fixed a regression with mouse wheel (now working on Firefox 5)
 *	- Working with viewBox attribute (#4)
 *	- Added "use strict;" and fixed resulting warnings (#5)
 *	- Added configuration variables, dragging is disabled by default (#3)
 *
 * 1.2, Sat Mar 20 08:42:50 GMT 2010, Zeng Xiaohui
 *	Fixed a bug with browser mouse handler interaction
 *
 * 1.1, Wed Feb  3 17:39:33 GMT 2010, Zeng Xiaohui
 *	Updated the zoom code to support the mouse wheel on Safari/Chrome
 *
 * 1.0, Andrea Leofreddi
 *	First release
 *
 * This code is licensed under the following BSD license:
 *
 * Copyright 2009-2017 Andrea Leofreddi <a.leofreddi@vleo.net>. All rights reserved.
 *
 * Redistribution and use in source and binary forms, with or without modification, are
 * permitted provided that the following conditions are met:
 *
 *    1. Redistributions of source code must retain the above copyright
 *       notice, this list of conditions and the following disclaimer.
 *    2. Redistributions in binary form must reproduce the above copyright
 *       notice, this list of conditions and the following disclaimer in the
 *       documentation and/or other materials provided with the distribution.
 *    3. Neither the name of the copyright holder nor the names of its
 *       contributors may be used to endorse or promote products derived from
 *       this software without specific prior written permission.
 *
 * THIS SOFTWARE IS PROVIDED BY COPYRIGHT HOLDERS AND CONTRIBUTORS ''AS IS'' AND ANY EXPRESS
 * OR IMPLIED WARRANTIES, INCLUDING, BUT NOT LIMITED TO, THE IMPLIED WARRANTIES OF MERCHANTABILITY
 * AND FITNESS FOR A PARTICULAR PURPOSE ARE DISCLAIMED. IN NO EVENT SHALL COPYRIGHT HOLDERS OR
 * CONTRIBUTORS BE LIABLE FOR ANY DIRECT, INDIRECT, INCIDENTAL, SPECIAL, EXEMPLARY, OR
 * CONSEQUENTIAL DAMAGES (INCLUDING, BUT NOT LIMITED TO, PROCUREMENT OF SUBSTITUTE GOODS OR
 * SERVICES; LOSS OF USE, DATA, OR PROFITS; OR BUSINESS INTERRUPTION) HOWEVER CAUSED AND ON
 * ANY THEORY OF LIABILITY, WHETHER IN CONTRACT, STRICT LIABILITY, OR TORT (INCLUDING
 * NEGLIGENCE OR OTHERWISE) ARISING IN ANY WAY OUT OF THE USE OF THIS SOFTWARE, EVEN IF
 * ADVISED OF THE POSSIBILITY OF SUCH DAMAGE.
 *
 * The views and conclusions contained in the software and documentation are those of the
 * authors and should not be interpreted as representing official policies, either expressed
 * or implied, of Andrea Leofreddi.
 */

"use strict";

/// CONFIGURATION
/// ====>

var enablePan = 1; // 1 or 0: enable or disable panning (default enabled)
var enableZoom = 1; // 1 or 0: enable or disable zooming (default enabled)
var enableDrag = 0; // 1 or 0: enable or disable dragging (default disabled)
var zoomScale = 0.2; // Zoom sensitivity

/// <====
/// END OF CONFIGURATION

var root = document.documentElement;

var state = 'none', svgRoot = null, stateTarget, stateOrigin, stateTf;

setupHandlers(root);

/**
 * Register handlers
 */
function setupHandlers(root){
	setAttributes(root, {
		"onmouseup" : "handleMouseUp(evt)",
		"onmousedown" : "handleMouseDown(evt)",
		"onmousemove" : "handleMouseMove(evt)",
		//"onmouseout" : "handleMouseUp(evt)", // Decomment this to stop the pan functionality when dragging out of the SVG element
	});

	if(navigator.userAgent.toLowerCase().indexOf('webkit') >= 0)
		window.addEventListener('mousewheel', handleMouseWheel, false); // Chrome/Safari
	else
		window.addEventListener('DOMMouseScroll', handleMouseWheel, false); // Others
}

/**
 * Retrieves the root element for SVG manipulation. The element is then cached into the svgRoot global variable.
 */
function getRoot(root) {
	if(svgRoot == null) {
		var r = root.getElementById("viewport") ? root.getElementById("viewport") : root.documentElement, t = r;

		while(t != root) {
			if(t.getAttribute("viewBox")) {
				setCTM(r, t.getCTM());

				t.removeAttribute("viewBox");
			}

			t = t.parentNode;
		}

		svgRoot = r;
	}

	return svgRoot;
}

/**
 * Instance an SVGPoint object with given event coordinates.
 */
function getEventPoint(evt) {
	var p = root.createSVGPoint();

	p.x = evt.clientX;
	p.y = evt.clientY;

	return p;
}

/**
 * Sets the current transform matrix of an element.
 */
function setCTM(element, matrix) {
	var s = "matrix(" + matrix.a + "," + matrix.b + "," + matrix.c + "," + matrix.d + "," + matrix.e + "," + matrix.f + ")";

	element.setAttribute("transform", s);
}

/**
 * Dumps a matrix to a string (useful for debug).
 */
function dumpMatrix(matrix) {
	var s = "[ " + matrix.a + ", " + matrix.c + ", " + matrix.e + "\n  " + matrix.b + ", " + matrix.d + ", " + matrix.f + "\n  0, 0, 1 ]";

	return s;
}

/**
 * Sets attributes of an element.
 */
function setAttributes(element, attributes){
	for (var i in attributes)
		element.setAttributeNS(null, i, attributes[i]);
}

/**
 * Handle mouse wheel event.
 */
function handleMouseWheel(evt) {
	if(!enableZoom)
		return;

	if(evt.preventDefault)
		evt.preventDefault();

	evt.returnValue = false;

	var svgDoc = evt.target.ownerDocument;

	var delta;

	if(evt.wheelDelta)
		delta = evt.wheelDelta / 360; // Chrome/Safari
	else
		delta = evt.detail / -9; // Mozilla

	var z = Math.pow(1 + zoomScale, delta);

	var g = getRoot(svgDoc);
	
	var p = getEventPoint(evt);

	p = p.matrixTransform(g.getCTM().inverse());

	// Compute new scale matrix in current mouse position
	var k = root.createSVGMatrix().translate(p.x, p.y).scale(z).translate(-p.x, -p.y);

        setCTM(g, g.getCTM().multiply(k));

	if(typeof(stateTf) == "undefined")
		stateTf = g.getCTM().inverse();

	stateTf = stateTf.multiply(k.inverse());
}

/**
 * Handle mouse move event.
 */
function handleMouseMove(evt) {
	if(evt.preventDefault)
		evt.preventDefault();

	evt.returnValue = false;

	var svgDoc = evt.target.ownerDocument;

	var g = getRoot(svgDoc);

	if(state == 'pan' && enablePan) {
		// Pan mode
		var p = getEventPoint(evt).matrixTransform(stateTf);

		setCTM(g, stateTf.inverse().translate(p.x - stateOrigin.x, p.y - stateOrigin.y));
	} else if(state == 'drag' && enableDrag) {
		// Drag mode
		var p = getEventPoint(evt).matrixTransform(g.getCTM().inverse());

		setCTM(stateTarget, root.createSVGMatrix().translate(p.x - stateOrigin.x, p.y - stateOrigin.y).multiply(g.getCTM().inverse()).multiply(stateTarget.getCTM()));

		stateOrigin = p;
	}
}

/**
 * Handle click event.
 */
function handleMouseDown(evt) {
	if(evt.preventDefault)
		evt.preventDefault();

	evt.returnValue = false;

	var svgDoc = evt.target.ownerDocument;

	var g = getRoot(svgDoc);

	if(
		evt.target.tagName == "svg"
		|| !enableDrag // Pan anyway when drag is disabled and the user clicked on an element
	) {
		// Pan mode
		state = 'pan';

		stateTf = g.getCTM().inverse();

		stateOrigin = getEventPoint(evt).matrixTransform(stateTf);
	} else {
		// Drag mode
		state = 'drag';

		stateTarget = evt.target;

		stateTf = g.getCTM().inverse();

		stateOrigin = getEventPoint(evt).matrixTransform(stateTf);
	}
}

/**
 * Handle mouse button release event.
 */
function handleMouseUp(evt) {
	if(evt.preventDefault)
		evt.preventDefault();

	evt.returnValue = false;

	var svgDoc = evt.target.ownerDocument;

	if(state == 'pan' || state == 'drag') {
		// Quit pan mode
		state = '';
	}
}
]]></script><g id="viewport" transform="scale(0.5,0.5) translate(0,0)"><g id="graph0" class="graph" transform="scale(1 1) rotate(0) translate(4 558)">
<title>unnamed</title>
<polygon fill="white" stroke="transparent" points="-4,4 -4,-558 601,-558 601,4 -4,4"/>
<g id="clust1" class="cluster">
<title>cluster_L</title>
<polygon fill="none" stroke="black" points="8,-413 8,-546 446,-546 446,-413 8,-413"/>
</g>
<!-- Type: alloc_space -->
<g id="node1" class="node">
<title>Type: alloc_space</title>
<polygon fill="#f8f8f8" stroke="black" points="437.5,-538 16.5,-538 16.5,-421 437.5,-421 437.5,-538"/>
<text text-anchor="start" x="24.5" y="-521.2" font-family="Times New Roman,serif" font-size="16.00">Type: alloc_space</text>
<text text-anchor="start" x="24.5" y="-503.2" font-family="Times New Roman,serif" font-size="16.00">Time: Aug 13, 2021 at 11:32pm (CEST)</text>
<text text-anchor="start" x="24.5" y="-485.2" font-family="Times New Roman,serif" font-size="16.00">Showing nodes accounting for 1.76GB, 99.87% of 1.76GB total</text>
<text text-anchor="start" x="24.5" y="-467.2" font-family="Times New Roman,serif" font-size="16.00">Dropped 9 nodes (cum &lt;= 0.01GB)</text>
<text text-anchor="start" x="24.5" y="-430.2" font-family="Times New Roman,serif" font-size="16.00">See https://git.io/JfYMW for how to read the graph</text>
</g>
<!-- N1 -->
<g id="node1" class="node">
<title>N1</title>
<g id="a_node1"><a xlink:title="learn/pointer&#45;vs&#45;struct.byPointer (1.76GB)">
<polygon fill="#edd5d5" stroke="#b20000" points="597,-173 409,-173 409,-87 597,-87 597,-173"/>
<text text-anchor="middle" x="503" y="-149.8" font-family="Times New Roman,serif" font-size="24.00">pointer&#45;vs&#45;struct</text>
<text text-anchor="middle" x="503" y="-123.8" font-family="Times New Roman,serif" font-size="24.00">byPointer</text>
<text text-anchor="middle" x="503" y="-97.8" font-family="Times New Roman,serif" font-size="24.00">1.76GB (99.87%)</text>
</a>
</g>
</g>
<!-- NN1_0 -->
<g id="NN1_0" class="node">
<title>NN1_0</title>
<g id="a_NN1_0"><a xlink:title="1.76GB">
<polygon fill="#f8f8f8" stroke="black" points="530,-36 480,-36 476,-32 476,0 526,0 530,-4 530,-36"/>
<polyline fill="none" stroke="black" points="526,-32 476,-32 "/>
<polyline fill="none" stroke="black" points="526,-32 526,0 "/>
<polyline fill="none" stroke="black" points="526,-32 530,-36 "/>
<text text-anchor="middle" x="503" y="-16.1" font-family="Times New Roman,serif" font-size="8.00">96B</text>
</a>
</g>
</g>
<!-- N1&#45;&gt;NN1_0 -->
<g id="edge1" class="edge">
<title>N1&#45;&gt;NN1_0</title>
<g id="a_edge1"><a xlink:title="1.76GB">
<path fill="none" stroke="black" d="M503,-86.79C503,-73.2 503,-58.5 503,-46.28"/>
<polygon fill="black" stroke="black" points="506.5,-46.27 503,-36.27 499.5,-46.27 506.5,-46.27"/>
</a>
</g>
<g id="a_edge1&#45;label"><a xlink:title="1.76GB">
<text text-anchor="middle" x="527" y="-57.8" font-family="Times New Roman,serif" font-size="14.00"> 1.76GB</text>
</a>
</g>
</g>
<!-- N2 -->
<g id="node2" class="node">
<title>N2</title>
<g id="a_node2"><a xlink:title="testing.(*B).launch (1.76GB)">
<polygon fill="#edd5d5" stroke="#b20000" points="550.5,-501.5 455.5,-501.5 455.5,-457.5 550.5,-457.5 550.5,-501.5"/>
<text text-anchor="middle" x="503" y="-491.1" font-family="Times New Roman,serif" font-size="8.00">testing</text>
<text text-anchor="middle" x="503" y="-482.1" font-family="Times New Roman,serif" font-size="8.00">(*B)</text>
<text text-anchor="middle" x="503" y="-473.1" font-family="Times New Roman,serif" font-size="8.00">launch</text>
<text text-anchor="middle" x="503" y="-464.1" font-family="Times New Roman,serif" font-size="8.00">0 of 1.76GB (99.87%)</text>
</a>
</g>
</g>
<!-- N4 -->
<g id="node4" class="node">
<title>N4</title>
<g id="a_node4"><a xlink:title="testing.(*B).runN (1.76GB)">
<polygon fill="#edd5d5" stroke="#b20000" points="550.5,-370 455.5,-370 455.5,-326 550.5,-326 550.5,-370"/>
<text text-anchor="middle" x="503" y="-359.6" font-family="Times New Roman,serif" font-size="8.00">testing</text>
<text text-anchor="middle" x="503" y="-350.6" font-family="Times New Roman,serif" font-size="8.00">(*B)</text>
<text text-anchor="middle" x="503" y="-341.6" font-family="Times New Roman,serif" font-size="8.00">runN</text>
<text text-anchor="middle" x="503" y="-332.6" font-family="Times New Roman,serif" font-size="8.00">0 of 1.76GB (99.87%)</text>
</a>
</g>
</g>
<!-- N2&#45;&gt;N4 -->
<g id="edge3" class="edge">
<title>N2&#45;&gt;N4</title>
<g id="a_edge3"><a xlink:title="testing.(*B).launch &#45;&gt; testing.(*B).runN (1.76GB)">
<path fill="none" stroke="#b20000" stroke-width="5" d="M503,-457.41C503,-436.52 503,-404.3 503,-380.41"/>
<polygon fill="#b20000" stroke="#b20000" stroke-width="5" points="507.38,-380.09 503,-370.09 498.63,-380.09 507.38,-380.09"/>
</a>
</g>
<g id="a_edge3&#45;label"><a xlink:title="testing.(*B).launch &#45;&gt; testing.(*B).runN (1.76GB)">
<text text-anchor="middle" x="527" y="-391.8" font-family="Times New Roman,serif" font-size="14.00"> 1.76GB</text>
</a>
</g>
</g>
<!-- N3 -->
<g id="node3" class="node">
<title>N3</title>
<g id="a_node3"><a xlink:title="learn/pointer&#45;vs&#45;struct.BenchmarkMemoryHeap (1.76GB)">
<polygon fill="#edd5d5" stroke="#b20000" points="555,-275 451,-275 451,-239 555,-239 555,-275"/>
<text text-anchor="middle" x="503" y="-264.1" font-family="Times New Roman,serif" font-size="8.00">pointer&#45;vs&#45;struct</text>
<text text-anchor="middle" x="503" y="-255.1" font-family="Times New Roman,serif" font-size="8.00">BenchmarkMemoryHeap</text>
<text text-anchor="middle" x="503" y="-246.1" font-family="Times New Roman,serif" font-size="8.00">0 of 1.76GB (99.87%)</text>
</a>
</g>
</g>
<!-- N3&#45;&gt;N1 -->
<g id="edge2" class="edge">
<title>N3&#45;&gt;N1</title>
<g id="a_edge2"><a xlink:title="learn/pointer&#45;vs&#45;struct.BenchmarkMemoryHeap &#45;&gt; learn/pointer&#45;vs&#45;struct.byPointer (1.76GB)">
<path fill="none" stroke="#b20000" stroke-width="5" d="M503,-238.88C503,-224.53 503,-203.26 503,-183.39"/>
<polygon fill="#b20000" stroke="#b20000" stroke-width="5" points="507.38,-183.17 503,-173.17 498.63,-183.17 507.38,-183.17"/>
</a>
</g>
<g id="a_edge2&#45;label"><a xlink:title="learn/pointer&#45;vs&#45;struct.BenchmarkMemoryHeap &#45;&gt; learn/pointer&#45;vs&#45;struct.byPointer (1.76GB)">
<text text-anchor="middle" x="527" y="-209.8" font-family="Times New Roman,serif" font-size="14.00"> 1.76GB</text>
<text text-anchor="middle" x="527" y="-194.8" font-family="Times New Roman,serif" font-size="14.00"> (inline)</text>
</a>
</g>
</g>
<!-- N4&#45;&gt;N3 -->
<g id="edge4" class="edge">
<title>N4&#45;&gt;N3</title>
<g id="a_edge4"><a xlink:title="testing.(*B).runN &#45;&gt; learn/pointer&#45;vs&#45;struct.BenchmarkMemoryHeap (1.76GB)">
<path fill="none" stroke="#b20000" stroke-width="5" d="M503,-325.91C503,-313.78 503,-298.41 503,-285.36"/>
<polygon fill="#b20000" stroke="#b20000" stroke-width="5" points="507.38,-285.07 503,-275.07 498.63,-285.07 507.38,-285.07"/>
</a>
</g>
<g id="a_edge4&#45;label"><a xlink:title="testing.(*B).runN &#45;&gt; learn/pointer&#45;vs&#45;struct.BenchmarkMemoryHeap (1.76GB)">
<text text-anchor="middle" x="527" y="-296.8" font-family="Times New Roman,serif" font-size="14.00"> 1.76GB</text>
</a>
</g>
</g>
</g>
</g></svg>
